<?xml version="1.0" standalone="no"?>
<!DOCTYPE svg PUBLIC "-//W3C//DTD SVG 20010904//EN"
 "http://www.w3.org/TR/2001/REC-SVG-20010904/DTD/svg10.dtd">
<svg version="1.0" xmlns="http://www.w3.org/2000/svg"
 width="16.000000pt" height="16.000000pt" viewBox="0 0 16.000000 16.000000"
 preserveAspectRatio="xMidYMid meet">
<metadata>
Created by potrace 1.11, written by Peter Selinger 2001-2013
</metadata>
<g transform="translate(0.000000,16.000000) scale(0.003125,-0.003125)"
fill="#000000" stroke="none">
<path d="M2484 4949 c-142 -25 -256 -147 -279 -299 -103 -689 -415 -1169 -960
-1476 -222 -126 -557 -237 -791 -263 -191 -22 -323 -153 -330 -328 -8 -197
125 -343 336 -368 51 -6 241 -44 320 -64 19 -5 77 -23 129 -41 565 -192 956
-577 1177 -1158 45 -119 104 -337 104 -386 0 -15 3 -25 8 -23 4 3 7 -11 6 -31
-1 -49 19 -123 47 -169 95 -159 296 -217 463 -134 112 55 175 149 195 291 40
285 149 587 299 827 230 370 560 632 982 778 115 39 286 83 361 92 27 3 47 8
45 12 -2 3 22 7 54 8 256 11 418 281 300 502 -61 114 -153 172 -300 190 -99
13 -290 58 -405 96 -713 239 -1176 765 -1314 1495 -10 58 -22 123 -25 145 -32
211 -211 340 -422 304z m290 -1765 c81 -101 248 -269 341 -343 39 -31 76 -62
83 -69 25 -23 268 -182 279 -182 6 0 16 -6 22 -14 10 -12 7 -17 -13 -28 -223
-120 -518 -372 -695 -593 -40 -49 -108 -144 -152 -210 -44 -66 -82 -120 -84
-120 -2 0 -39 54 -83 120 -112 171 -186 262 -341 415 -141 140 -284 254 -440
351 l-91 57 92 57 c106 65 286 199 368 271 151 135 314 325 430 501 l65 98 77
-115 c42 -63 106 -152 142 -196z"/>
</g>
</svg>
